%YAML 1.1
%TAG !u! tag:unity3d.com,2011:
--- !u!114 &11400000
MonoBehaviour:
  m_ObjectHideFlags: 0
  m_CorrespondingSourceObject: {fileID: 0}
  m_PrefabInstance: {fileID: 0}
  m_PrefabAsset: {fileID: 0}
  m_GameObject: {fileID: 0}
  m_Enabled: 1
  m_EditorHideFlags: 0
  m_Script: {fileID: 11500000, guid: 782f629a2df6243629ea8fe2873666a4, type: 3}
  m_Name: FlightSimulatorPanelSettings
  m_EditorClassIdentifier: 
  themeUss: {fileID: 11400000, guid: f567955c754d54a108d615cb51ccbf2f, type: 2}
  m_TargetTexture: {fileID: 0}
  m_ScaleMode: 1
  m_Scale: 1
  m_ReferenceDpi: 96
  m_FallbackDpi: 96
  m_ReferenceResolution: {x: 1200, y: 800}
  m_ScreenMatchMode: 0
  m_Match: 0
  m_SortingOrder: 0
  m_ClearDepthStencil: 1
  m_ClearColor: 0
  m_ColorClearValue: {r: 0, g: 0, b: 0, a: 0}
  m_DynamicAtlasSettings:
    m_MinAtlasSize: 64
    m_MaxAtlasSize: 4096
    m_MaxSubTextureSize: 64
    m_ActiveFilters: 31
  m_AtlasBlitShader: {fileID: 4800000, guid: 662b00f569c02f84bbc426d4c41ceb5e, type: 3}
  m_RuntimeShader: {fileID: 4800000, guid: 1e5f18a346ed454418f93aa7eaf55791, type: 3}
  m_RuntimeWorldShader: {fileID: 4800000, guid: 7082954141e3ccc43bc3b217cf12e2e0,
    type: 3}
