\@ifundefined {etoctocstyle}{\let \etoc@startlocaltoc \@gobble \let \etoc@settocdepth \@gobble \let \etoc@depthtag \@gobble \let \etoc@setlocaltop \@gobble }{}
\contentsline {chapter}{\numberline {1}Namespace Index}{1}{chapter.1}%
\contentsline {section}{\numberline {1.1}Namespace List}{1}{section.1.1}%
\contentsline {chapter}{\numberline {2}Hierarchical Index}{3}{chapter.2}%
\contentsline {section}{\numberline {2.1}Class Hierarchy}{3}{section.2.1}%
\contentsline {chapter}{\numberline {3}Class Index}{5}{chapter.3}%
\contentsline {section}{\numberline {3.1}Class List}{5}{section.3.1}%
\contentsline {chapter}{\numberline {4}File Index}{7}{chapter.4}%
\contentsline {section}{\numberline {4.1}File List}{7}{section.4.1}%
\contentsline {chapter}{\numberline {5}Namespace Documentation}{9}{chapter.5}%
\contentsline {section}{\numberline {5.1}Controllers Namespace Reference}{9}{section.5.1}%
\contentsline {section}{\numberline {5.2}UI Namespace Reference}{9}{section.5.2}%
\contentsline {section}{\numberline {5.3}U\discretionary {\mbox {\scriptsize $\hookleftarrow $}}{}{}I.\discretionary {\mbox {\scriptsize $\hookleftarrow $}}{}{}Components Namespace Reference}{9}{section.5.3}%
\contentsline {section}{\numberline {5.4}U\discretionary {\mbox {\scriptsize $\hookleftarrow $}}{}{}I.\discretionary {\mbox {\scriptsize $\hookleftarrow $}}{}{}Screens Namespace Reference}{10}{section.5.4}%
\contentsline {section}{\numberline {5.5}U\discretionary {\mbox {\scriptsize $\hookleftarrow $}}{}{}I.\discretionary {\mbox {\scriptsize $\hookleftarrow $}}{}{}Util Namespace Reference}{10}{section.5.5}%
\contentsline {chapter}{\numberline {6}Class Documentation}{11}{chapter.6}%
\contentsline {section}{\numberline {6.1}U\discretionary {\mbox {\scriptsize $\hookleftarrow $}}{}{}I.\discretionary {\mbox {\scriptsize $\hookleftarrow $}}{}{}Screens.\discretionary {\mbox {\scriptsize $\hookleftarrow $}}{}{}About\discretionary {\mbox {\scriptsize $\hookleftarrow $}}{}{}Screen\discretionary {\mbox {\scriptsize $\hookleftarrow $}}{}{}Manager Class Reference}{11}{section.6.1}%
\contentsline {subsection}{\numberline {6.1.1}Detailed Description}{12}{subsection.6.1.1}%
\contentsline {subsection}{\numberline {6.1.2}Constructor \& Destructor Documentation}{12}{subsection.6.1.2}%
\contentsline {subsubsection}{\numberline {6.1.2.1}AboutScreenManager()}{12}{subsubsection.6.1.2.1}%
\contentsline {subsection}{\numberline {6.1.3}Member Function Documentation}{12}{subsection.6.1.3}%
\contentsline {subsubsection}{\numberline {6.1.3.1}OnGeometryChange()}{12}{subsubsection.6.1.3.1}%
\contentsline {subsection}{\numberline {6.1.4}Member Data Documentation}{12}{subsection.6.1.4}%
\contentsline {subsubsection}{\numberline {6.1.4.1}BACK}{12}{subsubsection.6.1.4.1}%
\contentsline {subsubsection}{\numberline {6.1.4.2}NAME}{13}{subsubsection.6.1.4.2}%
\contentsline {section}{\numberline {6.2}Aerodynamics\discretionary {\mbox {\scriptsize $\hookleftarrow $}}{}{}Config Class Reference}{13}{section.6.2}%
\contentsline {subsection}{\numberline {6.2.1}Member Function Documentation}{13}{subsection.6.2.1}%
\contentsline {subsubsection}{\numberline {6.2.1.1}OnValidate()}{13}{subsubsection.6.2.1.1}%
\contentsline {subsection}{\numberline {6.2.2}Member Data Documentation}{14}{subsection.6.2.2}%
\contentsline {subsubsection}{\numberline {6.2.2.1}aspectRatio}{14}{subsubsection.6.2.2.1}%
\contentsline {subsubsection}{\numberline {6.2.2.2}autoAspectRatio}{14}{subsubsection.6.2.2.2}%
\contentsline {subsubsection}{\numberline {6.2.2.3}chord}{14}{subsubsection.6.2.2.3}%
\contentsline {subsubsection}{\numberline {6.2.2.4}flapFraction}{14}{subsubsection.6.2.2.4}%
\contentsline {subsubsection}{\numberline {6.2.2.5}liftSlope}{14}{subsubsection.6.2.2.5}%
\contentsline {subsubsection}{\numberline {6.2.2.6}skinFriction}{14}{subsubsection.6.2.2.6}%
\contentsline {subsubsection}{\numberline {6.2.2.7}span}{14}{subsubsection.6.2.2.7}%
\contentsline {subsubsection}{\numberline {6.2.2.8}stallAngleHigh}{15}{subsubsection.6.2.2.8}%
\contentsline {subsubsection}{\numberline {6.2.2.9}stallAngleLow}{15}{subsubsection.6.2.2.9}%
\contentsline {subsubsection}{\numberline {6.2.2.10}zeroLiftAoA}{15}{subsubsection.6.2.2.10}%
\contentsline {section}{\numberline {6.3}Aero\discretionary {\mbox {\scriptsize $\hookleftarrow $}}{}{}Dynamics\discretionary {\mbox {\scriptsize $\hookleftarrow $}}{}{}Editor Class Reference}{15}{section.6.3}%
\contentsline {subsection}{\numberline {6.3.1}Member Function Documentation}{16}{subsection.6.3.1}%
\contentsline {subsubsection}{\numberline {6.3.1.1}OnEnable()}{16}{subsubsection.6.3.1.1}%
\contentsline {subsubsection}{\numberline {6.3.1.2}OnInspectorGUI()}{16}{subsubsection.6.3.1.2}%
\contentsline {subsection}{\numberline {6.3.2}Member Data Documentation}{16}{subsection.6.3.2}%
\contentsline {subsubsection}{\numberline {6.3.2.1}aspectRatio}{16}{subsubsection.6.3.2.1}%
\contentsline {subsubsection}{\numberline {6.3.2.2}autoAspectRatio}{16}{subsubsection.6.3.2.2}%
\contentsline {subsubsection}{\numberline {6.3.2.3}chord}{16}{subsubsection.6.3.2.3}%
\contentsline {subsubsection}{\numberline {6.3.2.4}config}{16}{subsubsection.6.3.2.4}%
\contentsline {subsubsection}{\numberline {6.3.2.5}flapFraction}{17}{subsubsection.6.3.2.5}%
\contentsline {subsubsection}{\numberline {6.3.2.6}liftSlope}{17}{subsubsection.6.3.2.6}%
\contentsline {subsubsection}{\numberline {6.3.2.7}skinFriction}{17}{subsubsection.6.3.2.7}%
\contentsline {subsubsection}{\numberline {6.3.2.8}span}{17}{subsubsection.6.3.2.8}%
\contentsline {subsubsection}{\numberline {6.3.2.9}stallAngleHigh}{17}{subsubsection.6.3.2.9}%
\contentsline {subsubsection}{\numberline {6.3.2.10}stallAngleLow}{17}{subsubsection.6.3.2.10}%
\contentsline {subsubsection}{\numberline {6.3.2.11}zeroLiftAoA}{17}{subsubsection.6.3.2.11}%
\contentsline {section}{\numberline {6.4}Aerofoil Class Reference}{18}{section.6.4}%
\contentsline {subsection}{\numberline {6.4.1}Detailed Description}{18}{subsection.6.4.1}%
\contentsline {subsection}{\numberline {6.4.2}Member Function Documentation}{18}{subsection.6.4.2}%
\contentsline {subsubsection}{\numberline {6.4.2.1}GetDragAtAngleOfAttack()}{18}{subsubsection.6.4.2.1}%
\contentsline {subsubsection}{\numberline {6.4.2.2}GetLiftAtAngleOfAttack()}{19}{subsubsection.6.4.2.2}%
\contentsline {subsubsection}{\numberline {6.4.2.3}SetLiftCurve()}{19}{subsubsection.6.4.2.3}%
\contentsline {subsection}{\numberline {6.4.3}Member Data Documentation}{19}{subsection.6.4.3}%
\contentsline {subsubsection}{\numberline {6.4.3.1}description}{19}{subsubsection.6.4.3.1}%
\contentsline {subsubsection}{\numberline {6.4.3.2}drag}{19}{subsubsection.6.4.3.2}%
\contentsline {subsubsection}{\numberline {6.4.3.3}lift}{19}{subsubsection.6.4.3.3}%
\contentsline {section}{\numberline {6.5}Aerofoil\discretionary {\mbox {\scriptsize $\hookleftarrow $}}{}{}Editor Class Reference}{19}{section.6.5}%
\contentsline {subsection}{\numberline {6.5.1}Member Function Documentation}{20}{subsection.6.5.1}%
\contentsline {subsubsection}{\numberline {6.5.1.1}OnInspectorGUI()}{20}{subsubsection.6.5.1.1}%
\contentsline {subsection}{\numberline {6.5.2}Member Data Documentation}{20}{subsection.6.5.2}%
\contentsline {subsubsection}{\numberline {6.5.2.1}criticalAngle}{20}{subsubsection.6.5.2.1}%
\contentsline {subsubsection}{\numberline {6.5.2.2}flatPlateMult}{21}{subsubsection.6.5.2.2}%
\contentsline {subsubsection}{\numberline {6.5.2.3}fullyStalledAngle}{21}{subsubsection.6.5.2.3}%
\contentsline {subsubsection}{\numberline {6.5.2.4}kCriticalDesc}{21}{subsubsection.6.5.2.4}%
\contentsline {subsubsection}{\numberline {6.5.2.5}kflatPlateMax}{21}{subsubsection.6.5.2.5}%
\contentsline {subsubsection}{\numberline {6.5.2.6}kFlatPlateMultDesc}{21}{subsubsection.6.5.2.6}%
\contentsline {subsubsection}{\numberline {6.5.2.7}kFullStallDesc}{21}{subsubsection.6.5.2.7}%
\contentsline {subsubsection}{\numberline {6.5.2.8}kMaxLiftPosDesc}{21}{subsubsection.6.5.2.8}%
\contentsline {subsubsection}{\numberline {6.5.2.9}kMinLiftPosDesc}{22}{subsubsection.6.5.2.9}%
\contentsline {subsubsection}{\numberline {6.5.2.10}kNegAoaMultDesc}{22}{subsubsection.6.5.2.10}%
\contentsline {subsubsection}{\numberline {6.5.2.11}kNeutralLiftDesc}{22}{subsubsection.6.5.2.11}%
\contentsline {subsubsection}{\numberline {6.5.2.12}maxLiftPositive}{22}{subsubsection.6.5.2.12}%
\contentsline {subsubsection}{\numberline {6.5.2.13}minLiftPositive}{22}{subsubsection.6.5.2.13}%
\contentsline {subsubsection}{\numberline {6.5.2.14}negativeAoaMult}{22}{subsubsection.6.5.2.14}%
\contentsline {subsubsection}{\numberline {6.5.2.15}neutralLift}{22}{subsubsection.6.5.2.15}%
\contentsline {section}{\numberline {6.6}Airplane Class Reference}{23}{section.6.6}%
\contentsline {subsection}{\numberline {6.6.1}Member Function Documentation}{23}{subsection.6.6.1}%
\contentsline {subsubsection}{\numberline {6.6.1.1}Awake()}{23}{subsubsection.6.6.1.1}%
\contentsline {subsubsection}{\numberline {6.6.1.2}CalculatePitchG()}{24}{subsubsection.6.6.1.2}%
\contentsline {subsubsection}{\numberline {6.6.1.3}OnGUI()}{24}{subsubsection.6.6.1.3}%
\contentsline {subsubsection}{\numberline {6.6.1.4}Start()}{24}{subsubsection.6.6.1.4}%
\contentsline {subsubsection}{\numberline {6.6.1.5}Update()}{24}{subsubsection.6.6.1.5}%
\contentsline {subsection}{\numberline {6.6.2}Member Data Documentation}{24}{subsection.6.6.2}%
\contentsline {subsubsection}{\numberline {6.6.2.1}aileronLeft}{24}{subsubsection.6.6.2.1}%
\contentsline {subsubsection}{\numberline {6.6.2.2}aileronRight}{24}{subsubsection.6.6.2.2}%
\contentsline {subsubsection}{\numberline {6.6.2.3}elevator}{24}{subsubsection.6.6.2.3}%
\contentsline {subsubsection}{\numberline {6.6.2.4}engine}{25}{subsubsection.6.6.2.4}%
\contentsline {subsubsection}{\numberline {6.6.2.5}rudder}{25}{subsubsection.6.6.2.5}%
\contentsline {subsubsection}{\numberline {6.6.2.6}throttle}{25}{subsubsection.6.6.2.6}%
\contentsline {subsubsection}{\numberline {6.6.2.7}yawDefined}{25}{subsubsection.6.6.2.7}%
\contentsline {subsection}{\numberline {6.6.3}Property Documentation}{25}{subsection.6.6.3}%
\contentsline {subsubsection}{\numberline {6.6.3.1}Rigidbody}{25}{subsubsection.6.6.3.1}%
\contentsline {section}{\numberline {6.7}Master\discretionary {\mbox {\scriptsize $\hookleftarrow $}}{}{}Controls.\discretionary {\mbox {\scriptsize $\hookleftarrow $}}{}{}Airplane\discretionary {\mbox {\scriptsize $\hookleftarrow $}}{}{}Actions Struct Reference}{25}{section.6.7}%
\contentsline {subsection}{\numberline {6.7.1}Constructor \& Destructor Documentation}{26}{subsection.6.7.1}%
\contentsline {subsubsection}{\numberline {6.7.1.1}AirplaneActions()}{26}{subsubsection.6.7.1.1}%
\contentsline {subsection}{\numberline {6.7.2}Member Function Documentation}{26}{subsection.6.7.2}%
\contentsline {subsubsection}{\numberline {6.7.2.1}Disable()}{26}{subsubsection.6.7.2.1}%
\contentsline {subsubsection}{\numberline {6.7.2.2}Enable()}{26}{subsubsection.6.7.2.2}%
\contentsline {subsubsection}{\numberline {6.7.2.3}Get()}{27}{subsubsection.6.7.2.3}%
\contentsline {subsubsection}{\numberline {6.7.2.4}operator InputActionMap()}{27}{subsubsection.6.7.2.4}%
\contentsline {subsubsection}{\numberline {6.7.2.5}SetCallbacks()}{27}{subsubsection.6.7.2.5}%
\contentsline {subsection}{\numberline {6.7.3}Member Data Documentation}{27}{subsection.6.7.3}%
\contentsline {subsubsection}{\numberline {6.7.3.1}Brake}{27}{subsubsection.6.7.3.1}%
\contentsline {subsubsection}{\numberline {6.7.3.2}enabled}{27}{subsubsection.6.7.3.2}%
\contentsline {subsubsection}{\numberline {6.7.3.3}Flaps}{27}{subsubsection.6.7.3.3}%
\contentsline {subsubsection}{\numberline {6.7.3.4}m\_Wrapper}{27}{subsubsection.6.7.3.4}%
\contentsline {subsubsection}{\numberline {6.7.3.5}Pitch}{28}{subsubsection.6.7.3.5}%
\contentsline {subsubsection}{\numberline {6.7.3.6}Roll}{28}{subsubsection.6.7.3.6}%
\contentsline {subsubsection}{\numberline {6.7.3.7}Throttle}{28}{subsubsection.6.7.3.7}%
\contentsline {subsubsection}{\numberline {6.7.3.8}Yaw}{28}{subsubsection.6.7.3.8}%
\contentsline {section}{\numberline {6.8}Controllers.\discretionary {\mbox {\scriptsize $\hookleftarrow $}}{}{}Airplane\discretionary {\mbox {\scriptsize $\hookleftarrow $}}{}{}Controller Class Reference}{28}{section.6.8}%
\contentsline {subsection}{\numberline {6.8.1}Detailed Description}{29}{subsection.6.8.1}%
\contentsline {subsection}{\numberline {6.8.2}Member Function Documentation}{29}{subsection.6.8.2}%
\contentsline {subsubsection}{\numberline {6.8.2.1}Brake()}{29}{subsubsection.6.8.2.1}%
\contentsline {subsubsection}{\numberline {6.8.2.2}Flaps()}{29}{subsubsection.6.8.2.2}%
\contentsline {subsubsection}{\numberline {6.8.2.3}Pitch()}{30}{subsubsection.6.8.2.3}%
\contentsline {subsubsection}{\numberline {6.8.2.4}Roll()}{30}{subsubsection.6.8.2.4}%
\contentsline {subsubsection}{\numberline {6.8.2.5}Start()}{30}{subsubsection.6.8.2.5}%
\contentsline {subsubsection}{\numberline {6.8.2.6}Throttle()}{30}{subsubsection.6.8.2.6}%
\contentsline {subsubsection}{\numberline {6.8.2.7}Update()}{30}{subsubsection.6.8.2.7}%
\contentsline {subsubsection}{\numberline {6.8.2.8}Yaw()}{30}{subsubsection.6.8.2.8}%
\contentsline {section}{\numberline {6.9}U\discretionary {\mbox {\scriptsize $\hookleftarrow $}}{}{}I.\discretionary {\mbox {\scriptsize $\hookleftarrow $}}{}{}Util.\discretionary {\mbox {\scriptsize $\hookleftarrow $}}{}{}Airplane\discretionary {\mbox {\scriptsize $\hookleftarrow $}}{}{}Information Class Reference}{31}{section.6.9}%
\contentsline {subsection}{\numberline {6.9.1}Detailed Description}{32}{subsection.6.9.1}%
\contentsline {subsection}{\numberline {6.9.2}Constructor \& Destructor Documentation}{32}{subsection.6.9.2}%
\contentsline {subsubsection}{\numberline {6.9.2.1}AirplaneInformation()}{32}{subsubsection.6.9.2.1}%
\contentsline {subsection}{\numberline {6.9.3}Member Function Documentation}{32}{subsection.6.9.3}%
\contentsline {subsubsection}{\numberline {6.9.3.1}GetInstance()}{32}{subsubsection.6.9.3.1}%
\contentsline {subsubsection}{\numberline {6.9.3.2}RegisterCallback()}{32}{subsubsection.6.9.3.2}%
\contentsline {subsubsection}{\numberline {6.9.3.3}UnregisterCallback()}{33}{subsubsection.6.9.3.3}%
\contentsline {subsection}{\numberline {6.9.4}Member Data Documentation}{33}{subsection.6.9.4}%
\contentsline {subsubsection}{\numberline {6.9.4.1}\_altitude}{33}{subsubsection.6.9.4.1}%
\contentsline {subsubsection}{\numberline {6.9.4.2}\_brake}{33}{subsubsection.6.9.4.2}%
\contentsline {subsubsection}{\numberline {6.9.4.3}\_callbacks}{33}{subsubsection.6.9.4.3}%
\contentsline {subsubsection}{\numberline {6.9.4.4}\_instance}{33}{subsubsection.6.9.4.4}%
\contentsline {subsubsection}{\numberline {6.9.4.5}\_throttle}{34}{subsubsection.6.9.4.5}%
\contentsline {subsubsection}{\numberline {6.9.4.6}\_velocity}{34}{subsubsection.6.9.4.6}%
\contentsline {subsubsection}{\numberline {6.9.4.7}Lock}{34}{subsubsection.6.9.4.7}%
\contentsline {subsection}{\numberline {6.9.5}Property Documentation}{34}{subsection.6.9.5}%
\contentsline {subsubsection}{\numberline {6.9.5.1}Altitude}{34}{subsubsection.6.9.5.1}%
\contentsline {subsubsection}{\numberline {6.9.5.2}Brake}{34}{subsubsection.6.9.5.2}%
\contentsline {subsubsection}{\numberline {6.9.5.3}Throttle}{34}{subsubsection.6.9.5.3}%
\contentsline {subsubsection}{\numberline {6.9.5.4}Velocity}{35}{subsubsection.6.9.5.4}%
\contentsline {section}{\numberline {6.10}Airplane\discretionary {\mbox {\scriptsize $\hookleftarrow $}}{}{}Information\discretionary {\mbox {\scriptsize $\hookleftarrow $}}{}{}Sharer Class Reference}{35}{section.6.10}%
\contentsline {subsection}{\numberline {6.10.1}Detailed Description}{35}{subsection.6.10.1}%
\contentsline {subsection}{\numberline {6.10.2}Member Function Documentation}{35}{subsection.6.10.2}%
\contentsline {subsubsection}{\numberline {6.10.2.1}Start()}{35}{subsubsection.6.10.2.1}%
\contentsline {subsubsection}{\numberline {6.10.2.2}Update()}{36}{subsubsection.6.10.2.2}%
\contentsline {subsection}{\numberline {6.10.3}Member Data Documentation}{36}{subsection.6.10.3}%
\contentsline {subsubsection}{\numberline {6.10.3.1}\_rigidbody}{36}{subsubsection.6.10.3.1}%
\contentsline {section}{\numberline {6.11}Master\discretionary {\mbox {\scriptsize $\hookleftarrow $}}{}{}Controls.\discretionary {\mbox {\scriptsize $\hookleftarrow $}}{}{}Camera\discretionary {\mbox {\scriptsize $\hookleftarrow $}}{}{}Actions Struct Reference}{36}{section.6.11}%
\contentsline {subsection}{\numberline {6.11.1}Constructor \& Destructor Documentation}{37}{subsection.6.11.1}%
\contentsline {subsubsection}{\numberline {6.11.1.1}CameraActions()}{37}{subsubsection.6.11.1.1}%
\contentsline {subsection}{\numberline {6.11.2}Member Function Documentation}{37}{subsection.6.11.2}%
\contentsline {subsubsection}{\numberline {6.11.2.1}Disable()}{37}{subsubsection.6.11.2.1}%
\contentsline {subsubsection}{\numberline {6.11.2.2}Enable()}{37}{subsubsection.6.11.2.2}%
\contentsline {subsubsection}{\numberline {6.11.2.3}Get()}{37}{subsubsection.6.11.2.3}%
\contentsline {subsubsection}{\numberline {6.11.2.4}operator InputActionMap()}{37}{subsubsection.6.11.2.4}%
\contentsline {subsubsection}{\numberline {6.11.2.5}SetCallbacks()}{37}{subsubsection.6.11.2.5}%
\contentsline {subsection}{\numberline {6.11.3}Member Data Documentation}{38}{subsection.6.11.3}%
\contentsline {subsubsection}{\numberline {6.11.3.1}enabled}{38}{subsubsection.6.11.3.1}%
\contentsline {subsubsection}{\numberline {6.11.3.2}m\_Wrapper}{38}{subsubsection.6.11.3.2}%
\contentsline {subsubsection}{\numberline {6.11.3.3}RotationX}{38}{subsubsection.6.11.3.3}%
\contentsline {subsubsection}{\numberline {6.11.3.4}RotationY}{38}{subsubsection.6.11.3.4}%
\contentsline {section}{\numberline {6.12}Controllers.\discretionary {\mbox {\scriptsize $\hookleftarrow $}}{}{}Camera\discretionary {\mbox {\scriptsize $\hookleftarrow $}}{}{}Controller Class Reference}{38}{section.6.12}%
\contentsline {subsection}{\numberline {6.12.1}Detailed Description}{39}{subsection.6.12.1}%
\contentsline {subsection}{\numberline {6.12.2}Member Function Documentation}{39}{subsection.6.12.2}%
\contentsline {subsubsection}{\numberline {6.12.2.1}Look()}{39}{subsubsection.6.12.2.1}%
\contentsline {subsubsection}{\numberline {6.12.2.2}Start()}{39}{subsubsection.6.12.2.2}%
\contentsline {subsubsection}{\numberline {6.12.2.3}Update()}{40}{subsubsection.6.12.2.3}%
\contentsline {subsection}{\numberline {6.12.3}Member Data Documentation}{40}{subsection.6.12.3}%
\contentsline {subsubsection}{\numberline {6.12.3.1}\_currentRotationX}{40}{subsubsection.6.12.3.1}%
\contentsline {subsubsection}{\numberline {6.12.3.2}\_currentRotationY}{40}{subsubsection.6.12.3.2}%
\contentsline {subsubsection}{\numberline {6.12.3.3}rotationCapXAxis}{40}{subsubsection.6.12.3.3}%
\contentsline {subsubsection}{\numberline {6.12.3.4}sensitivity}{40}{subsubsection.6.12.3.4}%
\contentsline {section}{\numberline {6.13}Camera\discretionary {\mbox {\scriptsize $\hookleftarrow $}}{}{}Handler Class Reference}{40}{section.6.13}%
\contentsline {subsection}{\numberline {6.13.1}Member Function Documentation}{41}{subsection.6.13.1}%
\contentsline {subsubsection}{\numberline {6.13.1.1}LateUpdate()}{41}{subsubsection.6.13.1.1}%
\contentsline {subsection}{\numberline {6.13.2}Member Data Documentation}{41}{subsection.6.13.2}%
\contentsline {subsubsection}{\numberline {6.13.2.1}positionOffset}{41}{subsubsection.6.13.2.1}%
\contentsline {subsubsection}{\numberline {6.13.2.2}smoothSpeed}{41}{subsubsection.6.13.2.2}%
\contentsline {subsubsection}{\numberline {6.13.2.3}target}{41}{subsubsection.6.13.2.3}%
\contentsline {subsubsection}{\numberline {6.13.2.4}velocity}{42}{subsubsection.6.13.2.4}%
\contentsline {section}{\numberline {6.14}Center\discretionary {\mbox {\scriptsize $\hookleftarrow $}}{}{}Of\discretionary {\mbox {\scriptsize $\hookleftarrow $}}{}{}Mass Class Reference}{42}{section.6.14}%
\contentsline {subsection}{\numberline {6.14.1}Member Function Documentation}{42}{subsection.6.14.1}%
\contentsline {subsubsection}{\numberline {6.14.1.1}OnDrawGizmosSelected()}{42}{subsubsection.6.14.1.1}%
\contentsline {subsubsection}{\numberline {6.14.1.2}Start()}{42}{subsubsection.6.14.1.2}%
\contentsline {subsection}{\numberline {6.14.2}Member Data Documentation}{43}{subsection.6.14.2}%
\contentsline {subsubsection}{\numberline {6.14.2.1}Awake}{43}{subsubsection.6.14.2.1}%
\contentsline {subsubsection}{\numberline {6.14.2.2}CenterOfMass2}{43}{subsubsection.6.14.2.2}%
\contentsline {subsubsection}{\numberline {6.14.2.3}r}{43}{subsubsection.6.14.2.3}%
\contentsline {section}{\numberline {6.15}Control\discretionary {\mbox {\scriptsize $\hookleftarrow $}}{}{}Surface Class Reference}{43}{section.6.15}%
\contentsline {subsection}{\numberline {6.15.1}Member Function Documentation}{44}{subsection.6.15.1}%
\contentsline {subsubsection}{\numberline {6.15.1.1}Awake()}{44}{subsubsection.6.15.1.1}%
\contentsline {subsubsection}{\numberline {6.15.1.2}FixedUpdate()}{44}{subsubsection.6.15.1.2}%
\contentsline {subsubsection}{\numberline {6.15.1.3}Start()}{44}{subsubsection.6.15.1.3}%
\contentsline {subsection}{\numberline {6.15.2}Member Data Documentation}{44}{subsection.6.15.2}%
\contentsline {subsubsection}{\numberline {6.15.2.1}angle}{44}{subsubsection.6.15.2.1}%
\contentsline {subsubsection}{\numberline {6.15.2.2}max}{44}{subsubsection.6.15.2.2}%
\contentsline {subsubsection}{\numberline {6.15.2.3}maxTorque}{45}{subsubsection.6.15.2.3}%
\contentsline {subsubsection}{\numberline {6.15.2.4}min}{45}{subsubsection.6.15.2.4}%
\contentsline {subsubsection}{\numberline {6.15.2.5}moveSpeed}{45}{subsubsection.6.15.2.5}%
\contentsline {subsubsection}{\numberline {6.15.2.6}rigid}{45}{subsubsection.6.15.2.6}%
\contentsline {subsubsection}{\numberline {6.15.2.7}startLocalRotation}{45}{subsubsection.6.15.2.7}%
\contentsline {subsubsection}{\numberline {6.15.2.8}targetDeflection}{45}{subsubsection.6.15.2.8}%
\contentsline {subsubsection}{\numberline {6.15.2.9}wing}{45}{subsubsection.6.15.2.9}%
\contentsline {section}{\numberline {6.16}U\discretionary {\mbox {\scriptsize $\hookleftarrow $}}{}{}I.\discretionary {\mbox {\scriptsize $\hookleftarrow $}}{}{}Screens.\discretionary {\mbox {\scriptsize $\hookleftarrow $}}{}{}Game\discretionary {\mbox {\scriptsize $\hookleftarrow $}}{}{}Screen\discretionary {\mbox {\scriptsize $\hookleftarrow $}}{}{}Manager Class Reference}{46}{section.6.16}%
\contentsline {subsection}{\numberline {6.16.1}Detailed Description}{46}{subsection.6.16.1}%
\contentsline {subsection}{\numberline {6.16.2}Constructor \& Destructor Documentation}{46}{subsection.6.16.2}%
\contentsline {subsubsection}{\numberline {6.16.2.1}GameScreenManager()}{47}{subsubsection.6.16.2.1}%
\contentsline {subsubsection}{\numberline {6.16.2.2}$\sim $GameScreenManager()}{47}{subsubsection.6.16.2.2}%
\contentsline {subsection}{\numberline {6.16.3}Member Function Documentation}{47}{subsection.6.16.3}%
\contentsline {subsubsection}{\numberline {6.16.3.1}HideGoBackPopup()}{47}{subsubsection.6.16.3.1}%
\contentsline {subsubsection}{\numberline {6.16.3.2}OnGeometryChange()}{47}{subsubsection.6.16.3.2}%
\contentsline {subsubsection}{\numberline {6.16.3.3}ShowGoBackPopup()}{47}{subsubsection.6.16.3.3}%
\contentsline {subsection}{\numberline {6.16.4}Member Data Documentation}{48}{subsection.6.16.4}%
\contentsline {subsubsection}{\numberline {6.16.4.1}GoBackPopup}{48}{subsubsection.6.16.4.1}%
\contentsline {section}{\numberline {6.17}U\discretionary {\mbox {\scriptsize $\hookleftarrow $}}{}{}I.\discretionary {\mbox {\scriptsize $\hookleftarrow $}}{}{}Util.\discretionary {\mbox {\scriptsize $\hookleftarrow $}}{}{}Go\discretionary {\mbox {\scriptsize $\hookleftarrow $}}{}{}Back\discretionary {\mbox {\scriptsize $\hookleftarrow $}}{}{}Popup Class Reference}{48}{section.6.17}%
\contentsline {subsection}{\numberline {6.17.1}Constructor \& Destructor Documentation}{49}{subsection.6.17.1}%
\contentsline {subsubsection}{\numberline {6.17.1.1}GoBackPopup()}{49}{subsubsection.6.17.1.1}%
\contentsline {subsection}{\numberline {6.17.2}Member Function Documentation}{49}{subsection.6.17.2}%
\contentsline {subsubsection}{\numberline {6.17.2.1}GetInstance()}{49}{subsubsection.6.17.2.1}%
\contentsline {subsubsection}{\numberline {6.17.2.2}Hide()}{49}{subsubsection.6.17.2.2}%
\contentsline {subsubsection}{\numberline {6.17.2.3}RegisterCallback()}{49}{subsubsection.6.17.2.3}%
\contentsline {subsubsection}{\numberline {6.17.2.4}Show()}{50}{subsubsection.6.17.2.4}%
\contentsline {subsubsection}{\numberline {6.17.2.5}UnregisterCallback()}{50}{subsubsection.6.17.2.5}%
\contentsline {subsection}{\numberline {6.17.3}Member Data Documentation}{50}{subsection.6.17.3}%
\contentsline {subsubsection}{\numberline {6.17.3.1}\_callbacks}{50}{subsubsection.6.17.3.1}%
\contentsline {subsubsection}{\numberline {6.17.3.2}\_instance}{50}{subsubsection.6.17.3.2}%
\contentsline {subsubsection}{\numberline {6.17.3.3}Lock}{51}{subsubsection.6.17.3.3}%
\contentsline {section}{\numberline {6.18}U\discretionary {\mbox {\scriptsize $\hookleftarrow $}}{}{}I.\discretionary {\mbox {\scriptsize $\hookleftarrow $}}{}{}Components.\discretionary {\mbox {\scriptsize $\hookleftarrow $}}{}{}Go\discretionary {\mbox {\scriptsize $\hookleftarrow $}}{}{}Back\discretionary {\mbox {\scriptsize $\hookleftarrow $}}{}{}Popup\discretionary {\mbox {\scriptsize $\hookleftarrow $}}{}{}Manager Class Reference}{51}{section.6.18}%
\contentsline {subsection}{\numberline {6.18.1}Detailed Description}{52}{subsection.6.18.1}%
\contentsline {subsection}{\numberline {6.18.2}Constructor \& Destructor Documentation}{52}{subsection.6.18.2}%
\contentsline {subsubsection}{\numberline {6.18.2.1}GoBackPopupManager()}{52}{subsubsection.6.18.2.1}%
\contentsline {subsection}{\numberline {6.18.3}Member Function Documentation}{52}{subsection.6.18.3}%
\contentsline {subsubsection}{\numberline {6.18.3.1}CancelGoBackToTitleScreen()}{52}{subsubsection.6.18.3.1}%
\contentsline {subsubsection}{\numberline {6.18.3.2}GoBackToTitleScreen()}{52}{subsubsection.6.18.3.2}%
\contentsline {subsubsection}{\numberline {6.18.3.3}OnGeometryChange()}{52}{subsubsection.6.18.3.3}%
\contentsline {subsection}{\numberline {6.18.4}Member Data Documentation}{53}{subsection.6.18.4}%
\contentsline {subsubsection}{\numberline {6.18.4.1}NAME}{53}{subsubsection.6.18.4.1}%
\contentsline {subsubsection}{\numberline {6.18.4.2}NO}{53}{subsubsection.6.18.4.2}%
\contentsline {subsubsection}{\numberline {6.18.4.3}SCENE}{53}{subsubsection.6.18.4.3}%
\contentsline {subsubsection}{\numberline {6.18.4.4}YES}{53}{subsubsection.6.18.4.4}%
\contentsline {section}{\numberline {6.19}Master\discretionary {\mbox {\scriptsize $\hookleftarrow $}}{}{}Controls.\discretionary {\mbox {\scriptsize $\hookleftarrow $}}{}{}I\discretionary {\mbox {\scriptsize $\hookleftarrow $}}{}{}Airplane\discretionary {\mbox {\scriptsize $\hookleftarrow $}}{}{}Actions Interface Reference}{54}{section.6.19}%
\contentsline {subsection}{\numberline {6.19.1}Member Function Documentation}{54}{subsection.6.19.1}%
\contentsline {subsubsection}{\numberline {6.19.1.1}OnBrake()}{54}{subsubsection.6.19.1.1}%
\contentsline {subsubsection}{\numberline {6.19.1.2}OnFlaps()}{54}{subsubsection.6.19.1.2}%
\contentsline {subsubsection}{\numberline {6.19.1.3}OnPitch()}{54}{subsubsection.6.19.1.3}%
\contentsline {subsubsection}{\numberline {6.19.1.4}OnRoll()}{54}{subsubsection.6.19.1.4}%
\contentsline {subsubsection}{\numberline {6.19.1.5}OnThrottle()}{54}{subsubsection.6.19.1.5}%
\contentsline {subsubsection}{\numberline {6.19.1.6}OnYaw()}{55}{subsubsection.6.19.1.6}%
\contentsline {section}{\numberline {6.20}Master\discretionary {\mbox {\scriptsize $\hookleftarrow $}}{}{}Controls.\discretionary {\mbox {\scriptsize $\hookleftarrow $}}{}{}I\discretionary {\mbox {\scriptsize $\hookleftarrow $}}{}{}Camera\discretionary {\mbox {\scriptsize $\hookleftarrow $}}{}{}Actions Interface Reference}{55}{section.6.20}%
\contentsline {subsection}{\numberline {6.20.1}Member Function Documentation}{55}{subsection.6.20.1}%
\contentsline {subsubsection}{\numberline {6.20.1.1}OnRotationX()}{55}{subsubsection.6.20.1.1}%
\contentsline {subsubsection}{\numberline {6.20.1.2}OnRotationY()}{55}{subsubsection.6.20.1.2}%
\contentsline {section}{\numberline {6.21}U\discretionary {\mbox {\scriptsize $\hookleftarrow $}}{}{}I.\discretionary {\mbox {\scriptsize $\hookleftarrow $}}{}{}Components.\discretionary {\mbox {\scriptsize $\hookleftarrow $}}{}{}Information\discretionary {\mbox {\scriptsize $\hookleftarrow $}}{}{}Container\discretionary {\mbox {\scriptsize $\hookleftarrow $}}{}{}Manager Class Reference}{55}{section.6.21}%
\contentsline {subsection}{\numberline {6.21.1}Detailed Description}{57}{subsection.6.21.1}%
\contentsline {subsection}{\numberline {6.21.2}Constructor \& Destructor Documentation}{57}{subsection.6.21.2}%
\contentsline {subsubsection}{\numberline {6.21.2.1}InformationContainerManager()}{57}{subsubsection.6.21.2.1}%
\contentsline {subsubsection}{\numberline {6.21.2.2}$\sim $InformationContainerManager()}{57}{subsubsection.6.21.2.2}%
\contentsline {subsection}{\numberline {6.21.3}Member Function Documentation}{57}{subsection.6.21.3}%
\contentsline {subsubsection}{\numberline {6.21.3.1}OnAltitudeChange()}{57}{subsubsection.6.21.3.1}%
\contentsline {subsubsection}{\numberline {6.21.3.2}OnBrakeChange()}{57}{subsubsection.6.21.3.2}%
\contentsline {subsubsection}{\numberline {6.21.3.3}OnGeometryChange()}{59}{subsubsection.6.21.3.3}%
\contentsline {subsubsection}{\numberline {6.21.3.4}OnThrottleChange()}{59}{subsubsection.6.21.3.4}%
\contentsline {subsubsection}{\numberline {6.21.3.5}OnVelocityChange()}{59}{subsubsection.6.21.3.5}%
\contentsline {subsubsection}{\numberline {6.21.3.6}UpdateInformationLabel()}{60}{subsubsection.6.21.3.6}%
\contentsline {subsection}{\numberline {6.21.4}Member Data Documentation}{60}{subsection.6.21.4}%
\contentsline {subsubsection}{\numberline {6.21.4.1}\_netherlandsCultureInfo}{60}{subsubsection.6.21.4.1}%
\contentsline {subsubsection}{\numberline {6.21.4.2}DOUBLE\_FORMAT}{60}{subsubsection.6.21.4.2}%
\contentsline {subsubsection}{\numberline {6.21.4.3}DOUBLE\_ROUND\_DIGITS\_AMOUNT}{60}{subsubsection.6.21.4.3}%
\contentsline {subsubsection}{\numberline {6.21.4.4}INFORMATION}{60}{subsubsection.6.21.4.4}%
\contentsline {subsubsection}{\numberline {6.21.4.5}NL\_CULTURE\_NAME}{61}{subsubsection.6.21.4.5}%
\contentsline {subsubsection}{\numberline {6.21.4.6}PERCENTAGE\_MAX\_VALUE}{61}{subsubsection.6.21.4.6}%
\contentsline {section}{\numberline {6.22}U\discretionary {\mbox {\scriptsize $\hookleftarrow $}}{}{}I.\discretionary {\mbox {\scriptsize $\hookleftarrow $}}{}{}Util.\discretionary {\mbox {\scriptsize $\hookleftarrow $}}{}{}Go\discretionary {\mbox {\scriptsize $\hookleftarrow $}}{}{}Back\discretionary {\mbox {\scriptsize $\hookleftarrow $}}{}{}Popup.\discretionary {\mbox {\scriptsize $\hookleftarrow $}}{}{}Input\discretionary {\mbox {\scriptsize $\hookleftarrow $}}{}{}Callback Interface Reference}{61}{section.6.22}%
\contentsline {subsection}{\numberline {6.22.1}Detailed Description}{61}{subsection.6.22.1}%
\contentsline {subsection}{\numberline {6.22.2}Member Function Documentation}{61}{subsection.6.22.2}%
\contentsline {subsubsection}{\numberline {6.22.2.1}HideGoBackPopup()}{62}{subsubsection.6.22.2.1}%
\contentsline {subsubsection}{\numberline {6.22.2.2}ShowGoBackPopup()}{62}{subsubsection.6.22.2.2}%
\contentsline {section}{\numberline {6.23}Controllers.\discretionary {\mbox {\scriptsize $\hookleftarrow $}}{}{}Input\discretionary {\mbox {\scriptsize $\hookleftarrow $}}{}{}Controller Class Reference}{62}{section.6.23}%
\contentsline {subsection}{\numberline {6.23.1}Detailed Description}{62}{subsection.6.23.1}%
\contentsline {subsection}{\numberline {6.23.2}Member Function Documentation}{63}{subsection.6.23.2}%
\contentsline {subsubsection}{\numberline {6.23.2.1}Awake()}{63}{subsubsection.6.23.2.1}%
\contentsline {subsubsection}{\numberline {6.23.2.2}OnDisable()}{63}{subsubsection.6.23.2.2}%
\contentsline {subsubsection}{\numberline {6.23.2.3}OnEnable()}{63}{subsubsection.6.23.2.3}%
\contentsline {subsection}{\numberline {6.23.3}Member Data Documentation}{63}{subsection.6.23.3}%
\contentsline {subsubsection}{\numberline {6.23.3.1}MasterControls}{63}{subsubsection.6.23.3.1}%
\contentsline {section}{\numberline {6.24}Master\discretionary {\mbox {\scriptsize $\hookleftarrow $}}{}{}Controls.\discretionary {\mbox {\scriptsize $\hookleftarrow $}}{}{}I\discretionary {\mbox {\scriptsize $\hookleftarrow $}}{}{}User\discretionary {\mbox {\scriptsize $\hookleftarrow $}}{}{}Interface\discretionary {\mbox {\scriptsize $\hookleftarrow $}}{}{}In\discretionary {\mbox {\scriptsize $\hookleftarrow $}}{}{}Game\discretionary {\mbox {\scriptsize $\hookleftarrow $}}{}{}Actions Interface Reference}{63}{section.6.24}%
\contentsline {subsection}{\numberline {6.24.1}Member Function Documentation}{64}{subsection.6.24.1}%
\contentsline {subsubsection}{\numberline {6.24.1.1}OnBacktotitlescreen()}{64}{subsubsection.6.24.1.1}%
\contentsline {section}{\numberline {6.25}Master\discretionary {\mbox {\scriptsize $\hookleftarrow $}}{}{}Controls Class Reference}{64}{section.6.25}%
\contentsline {subsection}{\numberline {6.25.1}Constructor \& Destructor Documentation}{65}{subsection.6.25.1}%
\contentsline {subsubsection}{\numberline {6.25.1.1}MasterControls()}{65}{subsubsection.6.25.1.1}%
\contentsline {subsection}{\numberline {6.25.2}Member Function Documentation}{65}{subsection.6.25.2}%
\contentsline {subsubsection}{\numberline {6.25.2.1}Contains()}{66}{subsubsection.6.25.2.1}%
\contentsline {subsubsection}{\numberline {6.25.2.2}Disable()}{66}{subsubsection.6.25.2.2}%
\contentsline {subsubsection}{\numberline {6.25.2.3}Dispose()}{66}{subsubsection.6.25.2.3}%
\contentsline {subsubsection}{\numberline {6.25.2.4}Enable()}{66}{subsubsection.6.25.2.4}%
\contentsline {subsubsection}{\numberline {6.25.2.5}GetEnumerator()\hspace {0.1cm}{\footnotesize \ttfamily [1/2]}}{66}{subsubsection.6.25.2.5}%
\contentsline {subsubsection}{\numberline {6.25.2.6}GetEnumerator()\hspace {0.1cm}{\footnotesize \ttfamily [2/2]}}{66}{subsubsection.6.25.2.6}%
\contentsline {subsection}{\numberline {6.25.3}Member Data Documentation}{66}{subsection.6.25.3}%
\contentsline {subsubsection}{\numberline {6.25.3.1}Airplane}{66}{subsubsection.6.25.3.1}%
\contentsline {subsubsection}{\numberline {6.25.3.2}Camera}{67}{subsubsection.6.25.3.2}%
\contentsline {subsubsection}{\numberline {6.25.3.3}controlSchemes}{67}{subsubsection.6.25.3.3}%
\contentsline {subsubsection}{\numberline {6.25.3.4}m\_Airplane}{67}{subsubsection.6.25.3.4}%
\contentsline {subsubsection}{\numberline {6.25.3.5}m\_Airplane\_Brake}{67}{subsubsection.6.25.3.5}%
\contentsline {subsubsection}{\numberline {6.25.3.6}m\_Airplane\_Flaps}{67}{subsubsection.6.25.3.6}%
\contentsline {subsubsection}{\numberline {6.25.3.7}m\_Airplane\_Pitch}{67}{subsubsection.6.25.3.7}%
\contentsline {subsubsection}{\numberline {6.25.3.8}m\_Airplane\_Roll}{67}{subsubsection.6.25.3.8}%
\contentsline {subsubsection}{\numberline {6.25.3.9}m\_Airplane\_Throttle}{67}{subsubsection.6.25.3.9}%
\contentsline {subsubsection}{\numberline {6.25.3.10}m\_Airplane\_Yaw}{68}{subsubsection.6.25.3.10}%
\contentsline {subsubsection}{\numberline {6.25.3.11}m\_AirplaneActionsCallbackInterface}{68}{subsubsection.6.25.3.11}%
\contentsline {subsubsection}{\numberline {6.25.3.12}m\_Camera}{68}{subsubsection.6.25.3.12}%
\contentsline {subsubsection}{\numberline {6.25.3.13}m\_Camera\_RotationX}{68}{subsubsection.6.25.3.13}%
\contentsline {subsubsection}{\numberline {6.25.3.14}m\_Camera\_RotationY}{68}{subsubsection.6.25.3.14}%
\contentsline {subsubsection}{\numberline {6.25.3.15}m\_CameraActionsCallbackInterface}{68}{subsubsection.6.25.3.15}%
\contentsline {subsubsection}{\numberline {6.25.3.16}m\_ControllerSchemeIndex}{68}{subsubsection.6.25.3.16}%
\contentsline {subsubsection}{\numberline {6.25.3.17}m\_KeyboardandmouseSchemeIndex}{68}{subsubsection.6.25.3.17}%
\contentsline {subsubsection}{\numberline {6.25.3.18}m\_UserInterfaceInGame}{69}{subsubsection.6.25.3.18}%
\contentsline {subsubsection}{\numberline {6.25.3.19}m\_UserInterfaceInGame\_Backtotitlescreen}{69}{subsubsection.6.25.3.19}%
\contentsline {subsubsection}{\numberline {6.25.3.20}m\_UserInterfaceInGameActionsCallbackInterface}{69}{subsubsection.6.25.3.20}%
\contentsline {subsubsection}{\numberline {6.25.3.21}UserInterfaceInGame}{69}{subsubsection.6.25.3.21}%
\contentsline {subsection}{\numberline {6.25.4}Property Documentation}{69}{subsection.6.25.4}%
\contentsline {subsubsection}{\numberline {6.25.4.1}asset}{69}{subsubsection.6.25.4.1}%
\contentsline {subsubsection}{\numberline {6.25.4.2}bindingMask}{69}{subsubsection.6.25.4.2}%
\contentsline {subsubsection}{\numberline {6.25.4.3}ControllerScheme}{69}{subsubsection.6.25.4.3}%
\contentsline {subsubsection}{\numberline {6.25.4.4}devices}{70}{subsubsection.6.25.4.4}%
\contentsline {subsubsection}{\numberline {6.25.4.5}KeyboardandmouseScheme}{70}{subsubsection.6.25.4.5}%
\contentsline {section}{\numberline {6.26}U\discretionary {\mbox {\scriptsize $\hookleftarrow $}}{}{}I.\discretionary {\mbox {\scriptsize $\hookleftarrow $}}{}{}Components.\discretionary {\mbox {\scriptsize $\hookleftarrow $}}{}{}Options\discretionary {\mbox {\scriptsize $\hookleftarrow $}}{}{}List\discretionary {\mbox {\scriptsize $\hookleftarrow $}}{}{}Manager Class Reference}{70}{section.6.26}%
\contentsline {subsection}{\numberline {6.26.1}Detailed Description}{70}{subsection.6.26.1}%
\contentsline {subsection}{\numberline {6.26.2}Constructor \& Destructor Documentation}{71}{subsection.6.26.2}%
\contentsline {subsubsection}{\numberline {6.26.2.1}OptionsListManager()}{71}{subsubsection.6.26.2.1}%
\contentsline {subsection}{\numberline {6.26.3}Member Function Documentation}{71}{subsection.6.26.3}%
\contentsline {subsubsection}{\numberline {6.26.3.1}OnGeometryChange()}{71}{subsubsection.6.26.3.1}%
\contentsline {section}{\numberline {6.27}U\discretionary {\mbox {\scriptsize $\hookleftarrow $}}{}{}I.\discretionary {\mbox {\scriptsize $\hookleftarrow $}}{}{}Util.\discretionary {\mbox {\scriptsize $\hookleftarrow $}}{}{}Options\discretionary {\mbox {\scriptsize $\hookleftarrow $}}{}{}Manager Class Reference}{71}{section.6.27}%
\contentsline {subsection}{\numberline {6.27.1}Detailed Description}{72}{subsection.6.27.1}%
\contentsline {subsection}{\numberline {6.27.2}Member Function Documentation}{72}{subsection.6.27.2}%
\contentsline {subsubsection}{\numberline {6.27.2.1}GetBoolValue()}{72}{subsubsection.6.27.2.1}%
\contentsline {subsubsection}{\numberline {6.27.2.2}GetFloatValue()}{73}{subsubsection.6.27.2.2}%
\contentsline {subsubsection}{\numberline {6.27.2.3}GetIntValue()}{73}{subsubsection.6.27.2.3}%
\contentsline {subsubsection}{\numberline {6.27.2.4}GetStringValue()}{73}{subsubsection.6.27.2.4}%
\contentsline {subsubsection}{\numberline {6.27.2.5}LoadIntoVisualElements()}{74}{subsubsection.6.27.2.5}%
\contentsline {subsubsection}{\numberline {6.27.2.6}LoadSliderOption()}{74}{subsubsection.6.27.2.6}%
\contentsline {subsubsection}{\numberline {6.27.2.7}LoadTextFieldOption()}{74}{subsubsection.6.27.2.7}%
\contentsline {subsubsection}{\numberline {6.27.2.8}LoadToggleOption()}{74}{subsubsection.6.27.2.8}%
\contentsline {subsubsection}{\numberline {6.27.2.9}Save()}{75}{subsubsection.6.27.2.9}%
\contentsline {subsubsection}{\numberline {6.27.2.10}SaveSliderOption()}{75}{subsubsection.6.27.2.10}%
\contentsline {subsubsection}{\numberline {6.27.2.11}SaveTextFieldOption()}{75}{subsubsection.6.27.2.11}%
\contentsline {subsubsection}{\numberline {6.27.2.12}SaveToggleOption()}{76}{subsubsection.6.27.2.12}%
\contentsline {subsection}{\numberline {6.27.3}Member Data Documentation}{76}{subsection.6.27.3}%
\contentsline {subsubsection}{\numberline {6.27.3.1}SLIDER}{76}{subsubsection.6.27.3.1}%
\contentsline {subsubsection}{\numberline {6.27.3.2}TEXT\_FIELD}{76}{subsubsection.6.27.3.2}%
\contentsline {subsubsection}{\numberline {6.27.3.3}TOGGLE}{76}{subsubsection.6.27.3.3}%
\contentsline {section}{\numberline {6.28}U\discretionary {\mbox {\scriptsize $\hookleftarrow $}}{}{}I.\discretionary {\mbox {\scriptsize $\hookleftarrow $}}{}{}Screens.\discretionary {\mbox {\scriptsize $\hookleftarrow $}}{}{}Options\discretionary {\mbox {\scriptsize $\hookleftarrow $}}{}{}Screen\discretionary {\mbox {\scriptsize $\hookleftarrow $}}{}{}Manager Class Reference}{77}{section.6.28}%
\contentsline {subsection}{\numberline {6.28.1}Detailed Description}{77}{subsection.6.28.1}%
\contentsline {subsection}{\numberline {6.28.2}Constructor \& Destructor Documentation}{78}{subsection.6.28.2}%
\contentsline {subsubsection}{\numberline {6.28.2.1}OptionsScreenManager()}{78}{subsubsection.6.28.2.1}%
\contentsline {subsection}{\numberline {6.28.3}Member Function Documentation}{78}{subsection.6.28.3}%
\contentsline {subsubsection}{\numberline {6.28.3.1}DiscardInput()}{78}{subsubsection.6.28.3.1}%
\contentsline {subsubsection}{\numberline {6.28.3.2}OnGeometryChange()}{78}{subsubsection.6.28.3.2}%
\contentsline {subsubsection}{\numberline {6.28.3.3}SaveOptions()}{78}{subsubsection.6.28.3.3}%
\contentsline {subsection}{\numberline {6.28.4}Member Data Documentation}{78}{subsection.6.28.4}%
\contentsline {subsubsection}{\numberline {6.28.4.1}BACK}{79}{subsubsection.6.28.4.1}%
\contentsline {subsubsection}{\numberline {6.28.4.2}NAME}{79}{subsubsection.6.28.4.2}%
\contentsline {subsubsection}{\numberline {6.28.4.3}OPTIONS\_LIST}{79}{subsubsection.6.28.4.3}%
\contentsline {subsubsection}{\numberline {6.28.4.4}SAVE}{79}{subsubsection.6.28.4.4}%
\contentsline {section}{\numberline {6.29}Proppeler Class Reference}{79}{section.6.29}%
\contentsline {subsection}{\numberline {6.29.1}Member Function Documentation}{80}{subsection.6.29.1}%
\contentsline {subsubsection}{\numberline {6.29.1.1}Start()}{80}{subsubsection.6.29.1.1}%
\contentsline {subsubsection}{\numberline {6.29.1.2}Update()}{80}{subsubsection.6.29.1.2}%
\contentsline {subsection}{\numberline {6.29.2}Member Data Documentation}{80}{subsection.6.29.2}%
\contentsline {subsubsection}{\numberline {6.29.2.1}Engine}{80}{subsubsection.6.29.2.1}%
\contentsline {section}{\numberline {6.30}U\discretionary {\mbox {\scriptsize $\hookleftarrow $}}{}{}I.\discretionary {\mbox {\scriptsize $\hookleftarrow $}}{}{}Screens.\discretionary {\mbox {\scriptsize $\hookleftarrow $}}{}{}Screen\discretionary {\mbox {\scriptsize $\hookleftarrow $}}{}{}Manager Class Reference}{80}{section.6.30}%
\contentsline {subsection}{\numberline {6.30.1}Detailed Description}{81}{subsection.6.30.1}%
\contentsline {subsection}{\numberline {6.30.2}Constructor \& Destructor Documentation}{81}{subsection.6.30.2}%
\contentsline {subsubsection}{\numberline {6.30.2.1}ScreenManager()}{81}{subsubsection.6.30.2.1}%
\contentsline {subsection}{\numberline {6.30.3}Member Function Documentation}{82}{subsection.6.30.3}%
\contentsline {subsubsection}{\numberline {6.30.3.1}EnableAboutScreen()}{82}{subsubsection.6.30.3.1}%
\contentsline {subsubsection}{\numberline {6.30.3.2}EnableOptionsScreen()}{82}{subsubsection.6.30.3.2}%
\contentsline {subsubsection}{\numberline {6.30.3.3}EnableTitleScreen()}{82}{subsubsection.6.30.3.3}%
\contentsline {subsubsection}{\numberline {6.30.3.4}OnGeometryChange()}{82}{subsubsection.6.30.3.4}%
\contentsline {subsection}{\numberline {6.30.4}Member Data Documentation}{82}{subsection.6.30.4}%
\contentsline {subsubsection}{\numberline {6.30.4.1}AboutScreen}{82}{subsubsection.6.30.4.1}%
\contentsline {subsubsection}{\numberline {6.30.4.2}OptionsScreen}{83}{subsubsection.6.30.4.2}%
\contentsline {subsubsection}{\numberline {6.30.4.3}TitleScreen}{83}{subsubsection.6.30.4.3}%
\contentsline {section}{\numberline {6.31}Thrust Class Reference}{83}{section.6.31}%
\contentsline {subsection}{\numberline {6.31.1}Member Function Documentation}{84}{subsection.6.31.1}%
\contentsline {subsubsection}{\numberline {6.31.1.1}Awake()}{84}{subsubsection.6.31.1.1}%
\contentsline {subsubsection}{\numberline {6.31.1.2}FixedUpdate()}{84}{subsubsection.6.31.1.2}%
\contentsline {subsection}{\numberline {6.31.2}Member Data Documentation}{84}{subsection.6.31.2}%
\contentsline {subsubsection}{\numberline {6.31.2.1}rigid}{84}{subsubsection.6.31.2.1}%
\contentsline {subsubsection}{\numberline {6.31.2.2}throttle}{84}{subsubsection.6.31.2.2}%
\contentsline {subsubsection}{\numberline {6.31.2.3}thrust}{84}{subsubsection.6.31.2.3}%
\contentsline {section}{\numberline {6.32}U\discretionary {\mbox {\scriptsize $\hookleftarrow $}}{}{}I.\discretionary {\mbox {\scriptsize $\hookleftarrow $}}{}{}Screens.\discretionary {\mbox {\scriptsize $\hookleftarrow $}}{}{}Title\discretionary {\mbox {\scriptsize $\hookleftarrow $}}{}{}Screen\discretionary {\mbox {\scriptsize $\hookleftarrow $}}{}{}Manager Class Reference}{85}{section.6.32}%
\contentsline {subsection}{\numberline {6.32.1}Detailed Description}{86}{subsection.6.32.1}%
\contentsline {subsection}{\numberline {6.32.2}Constructor \& Destructor Documentation}{86}{subsection.6.32.2}%
\contentsline {subsubsection}{\numberline {6.32.2.1}TitleScreenManager()}{86}{subsubsection.6.32.2.1}%
\contentsline {subsection}{\numberline {6.32.3}Member Function Documentation}{86}{subsection.6.32.3}%
\contentsline {subsubsection}{\numberline {6.32.3.1}OnGeometryChange()}{86}{subsubsection.6.32.3.1}%
\contentsline {subsubsection}{\numberline {6.32.3.2}QuitGame()}{86}{subsubsection.6.32.3.2}%
\contentsline {subsubsection}{\numberline {6.32.3.3}StartGame()}{86}{subsubsection.6.32.3.3}%
\contentsline {subsection}{\numberline {6.32.4}Member Data Documentation}{87}{subsection.6.32.4}%
\contentsline {subsubsection}{\numberline {6.32.4.1}ABOUT}{87}{subsubsection.6.32.4.1}%
\contentsline {subsubsection}{\numberline {6.32.4.2}NAME}{87}{subsubsection.6.32.4.2}%
\contentsline {subsubsection}{\numberline {6.32.4.3}OPTIONS}{87}{subsubsection.6.32.4.3}%
\contentsline {subsubsection}{\numberline {6.32.4.4}QUIT}{87}{subsubsection.6.32.4.4}%
\contentsline {subsubsection}{\numberline {6.32.4.5}SCENE}{87}{subsubsection.6.32.4.5}%
\contentsline {subsubsection}{\numberline {6.32.4.6}START}{88}{subsubsection.6.32.4.6}%
\contentsline {section}{\numberline {6.33}Master\discretionary {\mbox {\scriptsize $\hookleftarrow $}}{}{}Controls.\discretionary {\mbox {\scriptsize $\hookleftarrow $}}{}{}User\discretionary {\mbox {\scriptsize $\hookleftarrow $}}{}{}Interface\discretionary {\mbox {\scriptsize $\hookleftarrow $}}{}{}In\discretionary {\mbox {\scriptsize $\hookleftarrow $}}{}{}Game\discretionary {\mbox {\scriptsize $\hookleftarrow $}}{}{}Actions Struct Reference}{88}{section.6.33}%
\contentsline {subsection}{\numberline {6.33.1}Constructor \& Destructor Documentation}{88}{subsection.6.33.1}%
\contentsline {subsubsection}{\numberline {6.33.1.1}UserInterfaceInGameActions()}{88}{subsubsection.6.33.1.1}%
\contentsline {subsection}{\numberline {6.33.2}Member Function Documentation}{88}{subsection.6.33.2}%
\contentsline {subsubsection}{\numberline {6.33.2.1}Disable()}{89}{subsubsection.6.33.2.1}%
\contentsline {subsubsection}{\numberline {6.33.2.2}Enable()}{89}{subsubsection.6.33.2.2}%
\contentsline {subsubsection}{\numberline {6.33.2.3}Get()}{89}{subsubsection.6.33.2.3}%
\contentsline {subsubsection}{\numberline {6.33.2.4}operator InputActionMap()}{89}{subsubsection.6.33.2.4}%
\contentsline {subsubsection}{\numberline {6.33.2.5}SetCallbacks()}{89}{subsubsection.6.33.2.5}%
\contentsline {subsection}{\numberline {6.33.3}Member Data Documentation}{89}{subsection.6.33.3}%
\contentsline {subsubsection}{\numberline {6.33.3.1}Backtotitlescreen}{89}{subsubsection.6.33.3.1}%
\contentsline {subsubsection}{\numberline {6.33.3.2}enabled}{89}{subsubsection.6.33.3.2}%
\contentsline {subsubsection}{\numberline {6.33.3.3}m\_Wrapper}{90}{subsubsection.6.33.3.3}%
\contentsline {section}{\numberline {6.34}Controllers.\discretionary {\mbox {\scriptsize $\hookleftarrow $}}{}{}User\discretionary {\mbox {\scriptsize $\hookleftarrow $}}{}{}Interface\discretionary {\mbox {\scriptsize $\hookleftarrow $}}{}{}In\discretionary {\mbox {\scriptsize $\hookleftarrow $}}{}{}Game\discretionary {\mbox {\scriptsize $\hookleftarrow $}}{}{}Controller Class Reference}{90}{section.6.34}%
\contentsline {subsection}{\numberline {6.34.1}Detailed Description}{90}{subsection.6.34.1}%
\contentsline {subsection}{\numberline {6.34.2}Member Function Documentation}{90}{subsection.6.34.2}%
\contentsline {subsubsection}{\numberline {6.34.2.1}BackToTitleScreen()}{90}{subsubsection.6.34.2.1}%
\contentsline {subsubsection}{\numberline {6.34.2.2}Start()}{91}{subsubsection.6.34.2.2}%
\contentsline {section}{\numberline {6.35}U\discretionary {\mbox {\scriptsize $\hookleftarrow $}}{}{}I.\discretionary {\mbox {\scriptsize $\hookleftarrow $}}{}{}Screens.\discretionary {\mbox {\scriptsize $\hookleftarrow $}}{}{}Title\discretionary {\mbox {\scriptsize $\hookleftarrow $}}{}{}Screen\discretionary {\mbox {\scriptsize $\hookleftarrow $}}{}{}Manager.\discretionary {\mbox {\scriptsize $\hookleftarrow $}}{}{}Uxml\discretionary {\mbox {\scriptsize $\hookleftarrow $}}{}{}Factory Class Reference}{91}{section.6.35}%
\contentsline {subsection}{\numberline {6.35.1}Detailed Description}{91}{subsection.6.35.1}%
\contentsline {section}{\numberline {6.36}U\discretionary {\mbox {\scriptsize $\hookleftarrow $}}{}{}I.\discretionary {\mbox {\scriptsize $\hookleftarrow $}}{}{}Components.\discretionary {\mbox {\scriptsize $\hookleftarrow $}}{}{}Options\discretionary {\mbox {\scriptsize $\hookleftarrow $}}{}{}List\discretionary {\mbox {\scriptsize $\hookleftarrow $}}{}{}Manager.\discretionary {\mbox {\scriptsize $\hookleftarrow $}}{}{}Uxml\discretionary {\mbox {\scriptsize $\hookleftarrow $}}{}{}Factory Class Reference}{91}{section.6.36}%
\contentsline {subsection}{\numberline {6.36.1}Detailed Description}{91}{subsection.6.36.1}%
\contentsline {section}{\numberline {6.37}U\discretionary {\mbox {\scriptsize $\hookleftarrow $}}{}{}I.\discretionary {\mbox {\scriptsize $\hookleftarrow $}}{}{}Components.\discretionary {\mbox {\scriptsize $\hookleftarrow $}}{}{}Information\discretionary {\mbox {\scriptsize $\hookleftarrow $}}{}{}Container\discretionary {\mbox {\scriptsize $\hookleftarrow $}}{}{}Manager.\discretionary {\mbox {\scriptsize $\hookleftarrow $}}{}{}Uxml\discretionary {\mbox {\scriptsize $\hookleftarrow $}}{}{}Factory Class Reference}{91}{section.6.37}%
\contentsline {subsection}{\numberline {6.37.1}Detailed Description}{92}{subsection.6.37.1}%
\contentsline {section}{\numberline {6.38}U\discretionary {\mbox {\scriptsize $\hookleftarrow $}}{}{}I.\discretionary {\mbox {\scriptsize $\hookleftarrow $}}{}{}Screens.\discretionary {\mbox {\scriptsize $\hookleftarrow $}}{}{}Options\discretionary {\mbox {\scriptsize $\hookleftarrow $}}{}{}Screen\discretionary {\mbox {\scriptsize $\hookleftarrow $}}{}{}Manager.\discretionary {\mbox {\scriptsize $\hookleftarrow $}}{}{}Uxml\discretionary {\mbox {\scriptsize $\hookleftarrow $}}{}{}Factory Class Reference}{92}{section.6.38}%
\contentsline {subsection}{\numberline {6.38.1}Detailed Description}{92}{subsection.6.38.1}%
\contentsline {section}{\numberline {6.39}U\discretionary {\mbox {\scriptsize $\hookleftarrow $}}{}{}I.\discretionary {\mbox {\scriptsize $\hookleftarrow $}}{}{}Components.\discretionary {\mbox {\scriptsize $\hookleftarrow $}}{}{}Go\discretionary {\mbox {\scriptsize $\hookleftarrow $}}{}{}Back\discretionary {\mbox {\scriptsize $\hookleftarrow $}}{}{}Popup\discretionary {\mbox {\scriptsize $\hookleftarrow $}}{}{}Manager.\discretionary {\mbox {\scriptsize $\hookleftarrow $}}{}{}Uxml\discretionary {\mbox {\scriptsize $\hookleftarrow $}}{}{}Factory Class Reference}{92}{section.6.39}%
\contentsline {subsection}{\numberline {6.39.1}Detailed Description}{92}{subsection.6.39.1}%
\contentsline {section}{\numberline {6.40}U\discretionary {\mbox {\scriptsize $\hookleftarrow $}}{}{}I.\discretionary {\mbox {\scriptsize $\hookleftarrow $}}{}{}Screens.\discretionary {\mbox {\scriptsize $\hookleftarrow $}}{}{}Game\discretionary {\mbox {\scriptsize $\hookleftarrow $}}{}{}Screen\discretionary {\mbox {\scriptsize $\hookleftarrow $}}{}{}Manager.\discretionary {\mbox {\scriptsize $\hookleftarrow $}}{}{}Uxml\discretionary {\mbox {\scriptsize $\hookleftarrow $}}{}{}Factory Class Reference}{92}{section.6.40}%
\contentsline {subsection}{\numberline {6.40.1}Detailed Description}{92}{subsection.6.40.1}%
\contentsline {section}{\numberline {6.41}U\discretionary {\mbox {\scriptsize $\hookleftarrow $}}{}{}I.\discretionary {\mbox {\scriptsize $\hookleftarrow $}}{}{}Screens.\discretionary {\mbox {\scriptsize $\hookleftarrow $}}{}{}Screen\discretionary {\mbox {\scriptsize $\hookleftarrow $}}{}{}Manager.\discretionary {\mbox {\scriptsize $\hookleftarrow $}}{}{}Uxml\discretionary {\mbox {\scriptsize $\hookleftarrow $}}{}{}Factory Class Reference}{93}{section.6.41}%
\contentsline {subsection}{\numberline {6.41.1}Detailed Description}{93}{subsection.6.41.1}%
\contentsline {section}{\numberline {6.42}U\discretionary {\mbox {\scriptsize $\hookleftarrow $}}{}{}I.\discretionary {\mbox {\scriptsize $\hookleftarrow $}}{}{}Screens.\discretionary {\mbox {\scriptsize $\hookleftarrow $}}{}{}About\discretionary {\mbox {\scriptsize $\hookleftarrow $}}{}{}Screen\discretionary {\mbox {\scriptsize $\hookleftarrow $}}{}{}Manager.\discretionary {\mbox {\scriptsize $\hookleftarrow $}}{}{}Uxml\discretionary {\mbox {\scriptsize $\hookleftarrow $}}{}{}Factory Class Reference}{93}{section.6.42}%
\contentsline {subsection}{\numberline {6.42.1}Detailed Description}{93}{subsection.6.42.1}%
\contentsline {section}{\numberline {6.43}U\discretionary {\mbox {\scriptsize $\hookleftarrow $}}{}{}I.\discretionary {\mbox {\scriptsize $\hookleftarrow $}}{}{}Util.\discretionary {\mbox {\scriptsize $\hookleftarrow $}}{}{}Airplane\discretionary {\mbox {\scriptsize $\hookleftarrow $}}{}{}Information.\discretionary {\mbox {\scriptsize $\hookleftarrow $}}{}{}Values\discretionary {\mbox {\scriptsize $\hookleftarrow $}}{}{}Changed\discretionary {\mbox {\scriptsize $\hookleftarrow $}}{}{}Callback Interface Reference}{93}{section.6.43}%
\contentsline {subsection}{\numberline {6.43.1}Detailed Description}{94}{subsection.6.43.1}%
\contentsline {subsection}{\numberline {6.43.2}Member Function Documentation}{94}{subsection.6.43.2}%
\contentsline {subsubsection}{\numberline {6.43.2.1}OnAltitudeChange()}{94}{subsubsection.6.43.2.1}%
\contentsline {subsubsection}{\numberline {6.43.2.2}OnBrakeChange()}{94}{subsubsection.6.43.2.2}%
\contentsline {subsubsection}{\numberline {6.43.2.3}OnThrottleChange()}{94}{subsubsection.6.43.2.3}%
\contentsline {subsubsection}{\numberline {6.43.2.4}OnVelocityChange()}{95}{subsubsection.6.43.2.4}%
\contentsline {section}{\numberline {6.44}Wing Class Reference}{95}{section.6.44}%
\contentsline {subsection}{\numberline {6.44.1}Member Function Documentation}{96}{subsection.6.44.1}%
\contentsline {subsubsection}{\numberline {6.44.1.1}Awake()}{96}{subsubsection.6.44.1.1}%
\contentsline {subsubsection}{\numberline {6.44.1.2}FixedUpdate()}{96}{subsubsection.6.44.1.2}%
\contentsline {subsubsection}{\numberline {6.44.1.3}Start()}{97}{subsubsection.6.44.1.3}%
\contentsline {subsubsection}{\numberline {6.44.1.4}Update()}{97}{subsubsection.6.44.1.4}%
\contentsline {subsection}{\numberline {6.44.2}Member Data Documentation}{97}{subsection.6.44.2}%
\contentsline {subsubsection}{\numberline {6.44.2.1}angleOfAttack}{97}{subsubsection.6.44.2.1}%
\contentsline {subsubsection}{\numberline {6.44.2.2}applyForcesToCenter}{97}{subsubsection.6.44.2.2}%
\contentsline {subsubsection}{\numberline {6.44.2.3}dimensions}{97}{subsubsection.6.44.2.3}%
\contentsline {subsubsection}{\numberline {6.44.2.4}dragCoefficient}{97}{subsubsection.6.44.2.4}%
\contentsline {subsubsection}{\numberline {6.44.2.5}dragForce}{97}{subsubsection.6.44.2.5}%
\contentsline {subsubsection}{\numberline {6.44.2.6}dragMultiplier}{98}{subsubsection.6.44.2.6}%
\contentsline {subsubsection}{\numberline {6.44.2.7}liftCoefficient}{98}{subsubsection.6.44.2.7}%
\contentsline {subsubsection}{\numberline {6.44.2.8}liftDirection}{98}{subsubsection.6.44.2.8}%
\contentsline {subsubsection}{\numberline {6.44.2.9}liftForce}{98}{subsubsection.6.44.2.9}%
\contentsline {subsubsection}{\numberline {6.44.2.10}liftMultiplier}{98}{subsubsection.6.44.2.10}%
\contentsline {subsubsection}{\numberline {6.44.2.11}PREDICTION\_TIMESTEP\_FRACTION}{98}{subsubsection.6.44.2.11}%
\contentsline {subsubsection}{\numberline {6.44.2.12}rigid}{98}{subsubsection.6.44.2.12}%
\contentsline {subsubsection}{\numberline {6.44.2.13}wing}{98}{subsubsection.6.44.2.13}%
\contentsline {subsection}{\numberline {6.44.3}Property Documentation}{99}{subsection.6.44.3}%
\contentsline {subsubsection}{\numberline {6.44.3.1}AngleOfAttack}{99}{subsubsection.6.44.3.1}%
\contentsline {subsubsection}{\numberline {6.44.3.2}DragCoefficient}{99}{subsubsection.6.44.3.2}%
\contentsline {subsubsection}{\numberline {6.44.3.3}DragForce}{99}{subsubsection.6.44.3.3}%
\contentsline {subsubsection}{\numberline {6.44.3.4}LiftCoefficient}{99}{subsubsection.6.44.3.4}%
\contentsline {subsubsection}{\numberline {6.44.3.5}LiftForce}{99}{subsubsection.6.44.3.5}%
\contentsline {subsubsection}{\numberline {6.44.3.6}Rigidbody}{99}{subsubsection.6.44.3.6}%
\contentsline {subsubsection}{\numberline {6.44.3.7}WingArea}{99}{subsubsection.6.44.3.7}%
\contentsline {chapter}{\numberline {7}File Documentation}{101}{chapter.7}%
\contentsline {section}{\numberline {7.1}Assets/\discretionary {\mbox {\scriptsize $\hookleftarrow $}}{}{}Proppeler.cs File Reference}{101}{section.7.1}%
\contentsline {section}{\numberline {7.2}Assets/\discretionary {\mbox {\scriptsize $\hookleftarrow $}}{}{}Scripts/\discretionary {\mbox {\scriptsize $\hookleftarrow $}}{}{}Airplane\discretionary {\mbox {\scriptsize $\hookleftarrow $}}{}{}Information\discretionary {\mbox {\scriptsize $\hookleftarrow $}}{}{}Sharer.cs File Reference}{101}{section.7.2}%
\contentsline {section}{\numberline {7.3}Assets/\discretionary {\mbox {\scriptsize $\hookleftarrow $}}{}{}Scripts/\discretionary {\mbox {\scriptsize $\hookleftarrow $}}{}{}Camera\discretionary {\mbox {\scriptsize $\hookleftarrow $}}{}{}Handler.cs File Reference}{101}{section.7.3}%
\contentsline {section}{\numberline {7.4}Assets/\discretionary {\mbox {\scriptsize $\hookleftarrow $}}{}{}Scripts/\discretionary {\mbox {\scriptsize $\hookleftarrow $}}{}{}Controllers/\discretionary {\mbox {\scriptsize $\hookleftarrow $}}{}{}Airplane\discretionary {\mbox {\scriptsize $\hookleftarrow $}}{}{}Controller.cs File Reference}{101}{section.7.4}%
\contentsline {section}{\numberline {7.5}Assets/\discretionary {\mbox {\scriptsize $\hookleftarrow $}}{}{}Scripts/\discretionary {\mbox {\scriptsize $\hookleftarrow $}}{}{}Controllers/\discretionary {\mbox {\scriptsize $\hookleftarrow $}}{}{}Camera\discretionary {\mbox {\scriptsize $\hookleftarrow $}}{}{}Controller.cs File Reference}{102}{section.7.5}%
\contentsline {section}{\numberline {7.6}Assets/\discretionary {\mbox {\scriptsize $\hookleftarrow $}}{}{}Scripts/\discretionary {\mbox {\scriptsize $\hookleftarrow $}}{}{}Controllers/\discretionary {\mbox {\scriptsize $\hookleftarrow $}}{}{}Input\discretionary {\mbox {\scriptsize $\hookleftarrow $}}{}{}Controller.cs File Reference}{102}{section.7.6}%
\contentsline {section}{\numberline {7.7}Assets/\discretionary {\mbox {\scriptsize $\hookleftarrow $}}{}{}Scripts/\discretionary {\mbox {\scriptsize $\hookleftarrow $}}{}{}Controllers/\discretionary {\mbox {\scriptsize $\hookleftarrow $}}{}{}Master\discretionary {\mbox {\scriptsize $\hookleftarrow $}}{}{}Controls.cs File Reference}{102}{section.7.7}%
\contentsline {section}{\numberline {7.8}Assets/\discretionary {\mbox {\scriptsize $\hookleftarrow $}}{}{}Scripts/\discretionary {\mbox {\scriptsize $\hookleftarrow $}}{}{}Controllers/\discretionary {\mbox {\scriptsize $\hookleftarrow $}}{}{}User\discretionary {\mbox {\scriptsize $\hookleftarrow $}}{}{}Interface\discretionary {\mbox {\scriptsize $\hookleftarrow $}}{}{}In\discretionary {\mbox {\scriptsize $\hookleftarrow $}}{}{}Game\discretionary {\mbox {\scriptsize $\hookleftarrow $}}{}{}Controller.cs File Reference}{102}{section.7.8}%
\contentsline {section}{\numberline {7.9}Assets/\discretionary {\mbox {\scriptsize $\hookleftarrow $}}{}{}Scripts/\discretionary {\mbox {\scriptsize $\hookleftarrow $}}{}{}Editor/\discretionary {\mbox {\scriptsize $\hookleftarrow $}}{}{}Aerodynamics\discretionary {\mbox {\scriptsize $\hookleftarrow $}}{}{}Config\discretionary {\mbox {\scriptsize $\hookleftarrow $}}{}{}Editor.cs File Reference}{103}{section.7.9}%
\contentsline {section}{\numberline {7.10}Assets/\discretionary {\mbox {\scriptsize $\hookleftarrow $}}{}{}Scripts/\discretionary {\mbox {\scriptsize $\hookleftarrow $}}{}{}Editor/\discretionary {\mbox {\scriptsize $\hookleftarrow $}}{}{}Aerofoil\discretionary {\mbox {\scriptsize $\hookleftarrow $}}{}{}Editor.cs File Reference}{103}{section.7.10}%
\contentsline {section}{\numberline {7.11}Assets/\discretionary {\mbox {\scriptsize $\hookleftarrow $}}{}{}Scripts/\discretionary {\mbox {\scriptsize $\hookleftarrow $}}{}{}Physics/\discretionary {\mbox {\scriptsize $\hookleftarrow $}}{}{}Aerodynamics\discretionary {\mbox {\scriptsize $\hookleftarrow $}}{}{}Config.cs File Reference}{103}{section.7.11}%
\contentsline {section}{\numberline {7.12}Assets/\discretionary {\mbox {\scriptsize $\hookleftarrow $}}{}{}Scripts/\discretionary {\mbox {\scriptsize $\hookleftarrow $}}{}{}Physics/\discretionary {\mbox {\scriptsize $\hookleftarrow $}}{}{}Aerofoil.cs File Reference}{103}{section.7.12}%
\contentsline {section}{\numberline {7.13}Assets/\discretionary {\mbox {\scriptsize $\hookleftarrow $}}{}{}Scripts/\discretionary {\mbox {\scriptsize $\hookleftarrow $}}{}{}Physics/\discretionary {\mbox {\scriptsize $\hookleftarrow $}}{}{}Airplane.cs File Reference}{103}{section.7.13}%
\contentsline {section}{\numberline {7.14}Assets/\discretionary {\mbox {\scriptsize $\hookleftarrow $}}{}{}Scripts/\discretionary {\mbox {\scriptsize $\hookleftarrow $}}{}{}Physics/\discretionary {\mbox {\scriptsize $\hookleftarrow $}}{}{}Center\discretionary {\mbox {\scriptsize $\hookleftarrow $}}{}{}Of\discretionary {\mbox {\scriptsize $\hookleftarrow $}}{}{}Mass.cs File Reference}{103}{section.7.14}%
\contentsline {section}{\numberline {7.15}Assets/\discretionary {\mbox {\scriptsize $\hookleftarrow $}}{}{}Scripts/\discretionary {\mbox {\scriptsize $\hookleftarrow $}}{}{}Physics/\discretionary {\mbox {\scriptsize $\hookleftarrow $}}{}{}Control\discretionary {\mbox {\scriptsize $\hookleftarrow $}}{}{}Surface.cs File Reference}{104}{section.7.15}%
\contentsline {section}{\numberline {7.16}Assets/\discretionary {\mbox {\scriptsize $\hookleftarrow $}}{}{}Scripts/\discretionary {\mbox {\scriptsize $\hookleftarrow $}}{}{}Physics/\discretionary {\mbox {\scriptsize $\hookleftarrow $}}{}{}Thrust.cs File Reference}{104}{section.7.16}%
\contentsline {section}{\numberline {7.17}Assets/\discretionary {\mbox {\scriptsize $\hookleftarrow $}}{}{}Scripts/\discretionary {\mbox {\scriptsize $\hookleftarrow $}}{}{}Physics/\discretionary {\mbox {\scriptsize $\hookleftarrow $}}{}{}Wing.cs File Reference}{104}{section.7.17}%
\contentsline {section}{\numberline {7.18}Assets/\discretionary {\mbox {\scriptsize $\hookleftarrow $}}{}{}Scripts/\discretionary {\mbox {\scriptsize $\hookleftarrow $}}{}{}U\discretionary {\mbox {\scriptsize $\hookleftarrow $}}{}{}I/\discretionary {\mbox {\scriptsize $\hookleftarrow $}}{}{}Components/\discretionary {\mbox {\scriptsize $\hookleftarrow $}}{}{}Go\discretionary {\mbox {\scriptsize $\hookleftarrow $}}{}{}Back\discretionary {\mbox {\scriptsize $\hookleftarrow $}}{}{}Popup\discretionary {\mbox {\scriptsize $\hookleftarrow $}}{}{}Manager.cs File Reference}{104}{section.7.18}%
\contentsline {section}{\numberline {7.19}Assets/\discretionary {\mbox {\scriptsize $\hookleftarrow $}}{}{}Scripts/\discretionary {\mbox {\scriptsize $\hookleftarrow $}}{}{}U\discretionary {\mbox {\scriptsize $\hookleftarrow $}}{}{}I/\discretionary {\mbox {\scriptsize $\hookleftarrow $}}{}{}Components/\discretionary {\mbox {\scriptsize $\hookleftarrow $}}{}{}Information\discretionary {\mbox {\scriptsize $\hookleftarrow $}}{}{}Container\discretionary {\mbox {\scriptsize $\hookleftarrow $}}{}{}Manager.cs File Reference}{104}{section.7.19}%
\contentsline {section}{\numberline {7.20}Assets/\discretionary {\mbox {\scriptsize $\hookleftarrow $}}{}{}Scripts/\discretionary {\mbox {\scriptsize $\hookleftarrow $}}{}{}U\discretionary {\mbox {\scriptsize $\hookleftarrow $}}{}{}I/\discretionary {\mbox {\scriptsize $\hookleftarrow $}}{}{}Components/\discretionary {\mbox {\scriptsize $\hookleftarrow $}}{}{}Options\discretionary {\mbox {\scriptsize $\hookleftarrow $}}{}{}List\discretionary {\mbox {\scriptsize $\hookleftarrow $}}{}{}Manager.cs File Reference}{105}{section.7.20}%
\contentsline {section}{\numberline {7.21}Assets/\discretionary {\mbox {\scriptsize $\hookleftarrow $}}{}{}Scripts/\discretionary {\mbox {\scriptsize $\hookleftarrow $}}{}{}U\discretionary {\mbox {\scriptsize $\hookleftarrow $}}{}{}I/\discretionary {\mbox {\scriptsize $\hookleftarrow $}}{}{}Screens/\discretionary {\mbox {\scriptsize $\hookleftarrow $}}{}{}About\discretionary {\mbox {\scriptsize $\hookleftarrow $}}{}{}Screen\discretionary {\mbox {\scriptsize $\hookleftarrow $}}{}{}Manager.cs File Reference}{105}{section.7.21}%
\contentsline {section}{\numberline {7.22}Assets/\discretionary {\mbox {\scriptsize $\hookleftarrow $}}{}{}Scripts/\discretionary {\mbox {\scriptsize $\hookleftarrow $}}{}{}U\discretionary {\mbox {\scriptsize $\hookleftarrow $}}{}{}I/\discretionary {\mbox {\scriptsize $\hookleftarrow $}}{}{}Screens/\discretionary {\mbox {\scriptsize $\hookleftarrow $}}{}{}Game\discretionary {\mbox {\scriptsize $\hookleftarrow $}}{}{}Screen\discretionary {\mbox {\scriptsize $\hookleftarrow $}}{}{}Manager.cs File Reference}{105}{section.7.22}%
\contentsline {subsection}{\numberline {7.22.1}Typedef Documentation}{106}{subsection.7.22.1}%
\contentsline {subsubsection}{\numberline {7.22.1.1}Cursor}{106}{subsubsection.7.22.1.1}%
\contentsline {section}{\numberline {7.23}Assets/\discretionary {\mbox {\scriptsize $\hookleftarrow $}}{}{}Scripts/\discretionary {\mbox {\scriptsize $\hookleftarrow $}}{}{}U\discretionary {\mbox {\scriptsize $\hookleftarrow $}}{}{}I/\discretionary {\mbox {\scriptsize $\hookleftarrow $}}{}{}Screens/\discretionary {\mbox {\scriptsize $\hookleftarrow $}}{}{}Options\discretionary {\mbox {\scriptsize $\hookleftarrow $}}{}{}Screen\discretionary {\mbox {\scriptsize $\hookleftarrow $}}{}{}Manager.cs File Reference}{106}{section.7.23}%
\contentsline {section}{\numberline {7.24}Assets/\discretionary {\mbox {\scriptsize $\hookleftarrow $}}{}{}Scripts/\discretionary {\mbox {\scriptsize $\hookleftarrow $}}{}{}U\discretionary {\mbox {\scriptsize $\hookleftarrow $}}{}{}I/\discretionary {\mbox {\scriptsize $\hookleftarrow $}}{}{}Screens/\discretionary {\mbox {\scriptsize $\hookleftarrow $}}{}{}Screen\discretionary {\mbox {\scriptsize $\hookleftarrow $}}{}{}Manager.cs File Reference}{106}{section.7.24}%
\contentsline {section}{\numberline {7.25}Assets/\discretionary {\mbox {\scriptsize $\hookleftarrow $}}{}{}Scripts/\discretionary {\mbox {\scriptsize $\hookleftarrow $}}{}{}U\discretionary {\mbox {\scriptsize $\hookleftarrow $}}{}{}I/\discretionary {\mbox {\scriptsize $\hookleftarrow $}}{}{}Screens/\discretionary {\mbox {\scriptsize $\hookleftarrow $}}{}{}Title\discretionary {\mbox {\scriptsize $\hookleftarrow $}}{}{}Screen\discretionary {\mbox {\scriptsize $\hookleftarrow $}}{}{}Manager.cs File Reference}{107}{section.7.25}%
\contentsline {section}{\numberline {7.26}Assets/\discretionary {\mbox {\scriptsize $\hookleftarrow $}}{}{}Scripts/\discretionary {\mbox {\scriptsize $\hookleftarrow $}}{}{}U\discretionary {\mbox {\scriptsize $\hookleftarrow $}}{}{}I/\discretionary {\mbox {\scriptsize $\hookleftarrow $}}{}{}Util/\discretionary {\mbox {\scriptsize $\hookleftarrow $}}{}{}Airplane\discretionary {\mbox {\scriptsize $\hookleftarrow $}}{}{}Information.cs File Reference}{107}{section.7.26}%
\contentsline {section}{\numberline {7.27}Assets/\discretionary {\mbox {\scriptsize $\hookleftarrow $}}{}{}Scripts/\discretionary {\mbox {\scriptsize $\hookleftarrow $}}{}{}U\discretionary {\mbox {\scriptsize $\hookleftarrow $}}{}{}I/\discretionary {\mbox {\scriptsize $\hookleftarrow $}}{}{}Util/\discretionary {\mbox {\scriptsize $\hookleftarrow $}}{}{}Go\discretionary {\mbox {\scriptsize $\hookleftarrow $}}{}{}Back\discretionary {\mbox {\scriptsize $\hookleftarrow $}}{}{}Popup.cs File Reference}{107}{section.7.27}%
\contentsline {section}{\numberline {7.28}Assets/\discretionary {\mbox {\scriptsize $\hookleftarrow $}}{}{}Scripts/\discretionary {\mbox {\scriptsize $\hookleftarrow $}}{}{}U\discretionary {\mbox {\scriptsize $\hookleftarrow $}}{}{}I/\discretionary {\mbox {\scriptsize $\hookleftarrow $}}{}{}Util/\discretionary {\mbox {\scriptsize $\hookleftarrow $}}{}{}Options\discretionary {\mbox {\scriptsize $\hookleftarrow $}}{}{}Manager.cs File Reference}{108}{section.7.28}%
\contentsline {chapter}{Index}{109}{section*.195}%
